<?xml version="1.0" encoding="UTF-8"?>
<svg width="20px" height="18px" viewBox="0 0 20 18" version="1.1" xmlns="http://www.w3.org/2000/svg" xmlns:xlink="http://www.w3.org/1999/xlink">
    <!-- Generator: Sketch 53.2 (72643) - https://sketchapp.com -->
    <title>Components/Data Tables/Actions</title>
    <desc>Created with Sketch.</desc>
    <defs>
        <path d="M19,6 L15,2 L2,15 L2,19 L6,19 L19,6 Z M5,17 L4,16 L15,5 L16,6 L5,17 Z M8,20 L10,18 L22,18 L20,20 L8,20 Z" id="path-3"></path>
    </defs>
    <g id="Symbols" stroke="none" stroke-width="1" fill="none" fill-rule="evenodd">
        <g id="KnowledgeItemActions" transform="translate(-105.000000, -14.000000)">
            <g id="Components/Data-Tables/Actions">
                <g transform="translate(103.000000, 12.000000)">
                    <g id="Icons/24px/edit">
                        <mask id="mask-3" fill="white">
                            <use xlink:href="#path-3"></use>
                        </mask>
                        <use id="Combined-Shape" fill="#525A65" fill-rule="nonzero" xlink:href="#path-3"></use>
                        <g id="Colors/Dark" mask="url(#mask-3)" fill="#525A65" fill-rule="evenodd">
                            <rect x="0" y="0" width="24" height="24"></rect>
                        </g>
                    </g>
                </g>
            </g>
        </g>
    </g>
</svg>